…
``` r
bmismc <- insurance_df %>%
  filter(smoker == "yes") %>%
  select(bmi, charges)
bmismc
```

    ## # A tibble: 274 × 2
    ##      bmi charges
    ##    <dbl>   <dbl>
    ##  1  27.9  16885.
    ##  2  26.3  27809.
    ##  3  42.1  39612.
    ##  4  35.3  36837.
    ##  5  31.9  37702.
    ##  6  36.3  38711 
    ##  7  35.6  35586.
    ##  8  36.4  51195.
    ##  9  36.7  39774.
    ## 10  39.9  48173.
    ## # … with 264 more rows
…
